%YAML 1.1
%TAG !u! tag:unity3d.com,2011:
--- !u!114 &11400000
MonoBehaviour:
  m_ObjectHideFlags: 0
  m_CorrespondingSourceObject: {fileID: 0}
  m_PrefabInstance: {fileID: 0}
  m_PrefabAsset: {fileID: 0}
  m_GameObject: {fileID: 0}
  m_Enabled: 1
  m_EditorHideFlags: 0
  m_Script: {fileID: 11500000, guid: f4ff6b12df7ec7341892a18754da9e84, type: 3}
  m_Name: Wander Data
  m_EditorClassIdentifier: 
  weight: 1
  target: {x: 0, y: 0, z: 0}
  useMouseInput: 0
  WanderDistance: 2
  WanderRadius: 1
  WanderJitter: 20
  WanderTarget: {x: 0, y: 0, z: 0}
